[
    {
      "ratio": "Very similar",
      "Intent-1": "Şikayet tanımınız nedir",
      "Sample-1": "nasılsınız",
      "Intent-2": "Nasılsınız",
      "Sample-2": "nasılsınız"
    },
    {
      "ratio": "Very similar",
      "Intent-1": "Şikayet tanımınız nedir",
      "Sample-1": "nasılsınız",
      "Intent-2": "Nasılsınız",
      "Sample-2": "nasılsın"
    },
    {
      "ratio": "similar",
      "Intent-1": "Nörolojik sorunlarınız var mı",
      "Sample-1": "nörolojik sorunlarınız var mı",
      "Intent-2": "Psikolojik sorunlarınız var mı",
      "Sample-2": "psikolojik sorunlarınız var mı"
    },
    {
      "ratio": "similar",
      "Intent-1": "Ağız ve boğaz problemleriniz var mı",
      "Sample-1": "boğaz ağrısı yaşıyor musunuz",
      "Intent-2": "Baş ağrınız var mı (Nörojenik semptomlar)",
      "Sample-2": "baş ağrısı yaşıyor musunuz"
    },
    {
      "ratio": "Very similar",
      "Intent-1": "Ağız ve boğaz problemleriniz var mı",
      "Sample-1": "şikayetinizle birlikte boğaz ağrınız oluyor mu",
      "Intent-2": "Karın ağrınız var mı (Gastrointestinal semptomlar)",
      "Sample-2": "şikayetinizle birlikte karın ağrınız oluyor mu"
    },
    {
      "ratio": "Very similar",
      "Intent-1": "Karın ağrınız var mı (Gastrointestinal semptomlar)",
      "Sample-1": "şikayetinizle birlikte karın ağrınız oluyor mu",
      "Intent-2": "Ağız ve boğaz problemleriniz var mı",
      "Sample-2": "şikayetinizle birlikte boğaz ağrınız oluyor mu"
    },
    {
      "ratio": "similar",
      "Intent-1": "İdarınızı yaparken yanma oluyor mu",
      "Sample-1": "idrarını yaparken yanma oluyor mu?",
      "Intent-2": "Üretral akıntınız var mı",
      "Sample-2": "idrarınızı yaptıktan sonra akıntı oluyor mu?"
    },
    {
      "ratio": "similar",
      "Intent-1": "İdarınızı yaparken yanma oluyor mu",
      "Sample-1": "idrarınızı yaparken sızı oluyor mu?",
      "Intent-2": "Üretral akıntınız var mı",
      "Sample-2": "idrarınızı yaptıktan sonra akıntı oluyor mu?"
    },
    {
      "ratio": "similar",
      "Intent-1": "Sık sık idrara çıkıyor musunuz",
      "Sample-1": "sık idrara çıkıyor musunuz",
      "Intent-2": "Gece tuvalete gidiyor musunuz",
      "Sample-2": "gece idrara çıkıyor musunuz"
    },
    {
      "ratio": "similar",
      "Intent-1": "Gece tuvalete gidiyor musunuz",
      "Sample-1": "gece idrara çıkıyor musunuz",
      "Intent-2": "Sık sık idrara çıkıyor musunuz",
      "Sample-2": "sık idrara çıkıyor musunuz"
    },
    {
      "ratio": "similar",
      "Intent-1": "Üretral akıntınız var mı",
      "Sample-1": "idrarınızı yaptıktan sonra akıntı oluyor mu?",
      "Intent-2": "İdarınızı yaparken yanma oluyor mu",
      "Sample-2": "idrarınızı yaparken sızı oluyor mu?"
    },
    {
      "ratio": "similar",
      "Intent-1": "Üretral akıntınız var mı",
      "Sample-1": "idrarınızı yaptıktan sonra akıntı oluyor mu?",
      "Intent-2": "İdarınızı yaparken yanma oluyor mu",
      "Sample-2": "idrarını yaparken yanma oluyor mu?"
    },
    {
      "ratio": "similar",
      "Intent-1": "Baş ağrınız var mı (Nörojenik semptomlar)",
      "Sample-1": "baş ağrısı yaşıyor musunuz",
      "Intent-2": "Ağız ve boğaz problemleriniz var mı",
      "Sample-2": "boğaz ağrısı yaşıyor musunuz"
    },
    {
      "ratio": "similar",
      "Intent-1": "Psikolojik sorunlarınız var mı",
      "Sample-1": "psikolojik sorunlarınız var mı",
      "Intent-2": "Nörolojik sorunlarınız var mı",
      "Sample-2": "nörolojik sorunlarınız var mı"
    },
    {
      "ratio": "similar",
      "Intent-1": "Şikayetinizi neler tetikler&arttırır (giyinmek,egzersiz,yürümek,çalışmak vs.)",
      "Sample-1": "şikayetlerinizi arttıran bir şey var mı",
      "Intent-2": "Şikayetlerinize neler iyi gelir",
      "Sample-2": "şikayetlerinizi azaltan bir şey var mı"
    },
    {
      "ratio": "Very similar",
      "Intent-1": "Şikayetinizi neler tetikler&arttırır (giyinmek,egzersiz,yürümek,çalışmak vs.)",
      "Sample-1": "şikayetlerinizi ne arttırır",
      "Intent-2": "Şikayetlerinize neler iyi gelir",
      "Sample-2": "şikayetlerinizi ne azaltır"
    },
    {
      "ratio": "similar",
      "Intent-1": "Şikayetlerinize neler iyi gelir",
      "Sample-1": "şikayetlerinizi azaltan bir şey var mı",
      "Intent-2": "Şikayetinizi neler tetikler&arttırır (giyinmek,egzersiz,yürümek,çalışmak vs.)",
      "Sample-2": "şikayetlerinizi arttıran bir şey var mı"
    },
    {
      "ratio": "Very similar",
      "Intent-1": "Şikayetlerinize neler iyi gelir",
      "Sample-1": "şikayetlerinizi ne azaltır",
      "Intent-2": "Şikayetinizi neler tetikler&arttırır (giyinmek,egzersiz,yürümek,çalışmak vs.)",
      "Sample-2": "şikayetlerinizi ne arttırır"
    },
    {
      "ratio": "similar",
      "Intent-1": "Ailenizde rahatsızlığı olan var mı",
      "Sample-1": "ailenizde hasta olan var mı",
      "Intent-2": "Ailede aynı şikayetleri olan birileri var mı",
      "Sample-2": "ailenizde fmf si olan var mı"
    },
    {
      "ratio": "similar",
      "Intent-1": "Ailede aynı şikayetleri olan birileri var mı",
      "Sample-1": "ailenizde fmf si olan var mı",
      "Intent-2": "Ailenizde rahatsızlığı olan var mı",
      "Sample-2": "ailenizde hasta olan var mı"
    },
    {
      "ratio": "similar",
      "Intent-1": "Evli misin? Çocuğunuz var mı? Kaç tane?",
      "Sample-1": "eşin var mı",
      "Intent-2": "Diğer",
      "Sample-2": "sevgilin var mı"
    },
    {
      "ratio": "similar",
      "Intent-1": "Evli misin? Çocuğunuz var mı? Kaç tane?",
      "Sample-1": "eşin var mı",
      "Intent-2": "Diğer",
      "Sample-2": "sevdiğin var mı"
    },
    {
      "ratio": "similar",
      "Intent-1": "Evli misin? Çocuğunuz var mı? Kaç tane?",
      "Sample-1": "eşin var mı",
      "Intent-2": "Diğer",
      "Sample-2": "kuzenin var mı"
    },
    {
      "ratio": "similar",
      "Intent-1": "Evli misin? Çocuğunuz var mı? Kaç tane?",
      "Sample-1": "kocan var mı",
      "Intent-2": "Diğer",
      "Sample-2": "kuzenin var mı"
    },
    {
      "ratio": "similar",
      "Intent-1": "Evli misin? Çocuğunuz var mı? Kaç tane?",
      "Sample-1": "kocan var mı",
      "Intent-2": "Diğer",
      "Sample-2": "sevgilin var mı"
    },
    {
      "ratio": "Very similar",
      "Intent-1": "Nasılsınız",
      "Sample-1": "nasılsın",
      "Intent-2": "Şikayet tanımınız nedir",
      "Sample-2": "nasılsınız"
    },
    {
      "ratio": "similar",
      "Intent-1": "Diğer",
      "Sample-1": "sevdiğin var mı",
      "Intent-2": "Evli misin? Çocuğunuz var mı? Kaç tane?",
      "Sample-2": "eşin var mı"
    },
    {
      "ratio": "similar",
      "Intent-1": "Diğer",
      "Sample-1": "kuzenin var mı",
      "Intent-2": "Evli misin? Çocuğunuz var mı? Kaç tane?",
      "Sample-2": "kocan var mı"
    },
    {
      "ratio": "similar",
      "Intent-1": "Diğer",
      "Sample-1": "kuzenin var mı",
      "Intent-2": "Evli misin? Çocuğunuz var mı? Kaç tane?",
      "Sample-2": "eşin var mı"
    },
    {
      "ratio": "similar",
      "Intent-1": "Diğer",
      "Sample-1": "sevgilin var mı",
      "Intent-2": "Evli misin? Çocuğunuz var mı? Kaç tane?",
      "Sample-2": "eşin var mı"
    },
    {
      "ratio": "similar",
      "Intent-1": "Diğer",
      "Sample-1": "sevgilin var mı",
      "Intent-2": "Evli misin? Çocuğunuz var mı? Kaç tane?",
      "Sample-2": "kocan var mı"
    }
]